00:00,51.52958827391702
00:15,52.520670835674885
00:30,51.692867490602374
00:45,50.95593192082785
01:00,51.855493385618146
01:15,50.46379290908856
01:30,53.046574517208846
01:45,52.78215570334481
02:00,51.48481857405098
02:15,53.35052034943584
02:30,53.012681825186924
02:45,51.97518179309082
03:00,55.03173956932969
03:15,55.2997614323689
03:30,53.0143278139123
03:45,53.19333661912871
04:00,51.732331460889576
04:15,50.39235776016477
04:30,50.83521915733935
04:45,50.26607146153215
05:00,49.363472737349205
05:15,50.37203819505104
05:30,48.739507969358435
05:45,48.21836218531953
06:00,49.730329771602776
06:15,49.35759581699497
06:30,47.36910025416797
06:45,48.769314653309145
07:00,49.180411560594244
07:15,48.90973212481758
07:30,50.80524586320953
07:45,51.52664055395054
08:00,50.90204371592934
08:15,51.50743294280583
08:30,50.99031063718784
08:45,50.644149503448126
09:00,51.555938193268815
09:15,51.174935057618534
09:30,50.695515318975325
09:45,51.58237433558531
10:00,51.45411877557331
10:15,50.91557776282105
10:30,51.61968407751967
10:45,51.24869123384995
11:00,50.30377923756152
11:15,50.62811444590432
11:30,50.78128094009081
11:45,50.972927717351965
12:00,52.179817197606916
12:15,52.352404126697664
12:30,52.307253065182515
12:45,53.08435011698113
13:00,52.886189586216005
13:15,52.57570716965257
13:30,53.317581914064846
13:45,53.18605913319063
14:00,52.87490024591549
14:15,53.50262946255891
14:30,53.62455417307279
14:45,53.35628958781914
15:00,53.501839294195875
15:15,52.98084916691203
15:30,52.21176063552922
15:45,52.11439608724918
16:00,51.75706628583363
16:15,51.52723001158124
16:30,51.97338738040382
16:45,51.825164105407374
17:00,51.529063178266476
17:15,51.81900341414272
17:30,51.56684802316115
17:45,51.17058177828234
18:00,51.30577373144801
18:15,51.1136018557698
18:30,50.95172207505946
18:45,51.33564259487685
19:00,51.41773689418459
19:15,51.39126776639905
19:30,51.55167287675193
19:45,51.18389709924752
20:00,50.7151264020016
20:15,50.680525201077735
20:30,50.40484610342531
20:45,50.1823488130684
21:00,50.428692368829125
21:15,50.401778772906106
21:30,50.287095761958106
21:45,50.487369383314224
22:00,50.3824158459877
22:15,50.181482101830014
22:30,50.256221926368234
22:45,50.168515760331026
23:00,50.21053663374036
23:15,50.628985967213474
23:30,50.87440875217844
23:45,51.087975270356424
